…
    ## Rows: 450 Columns: 5
    ## ── Column specification ────────────────────────────────────────────────────────
    ## Delimiter: ","
    ## chr (1): Algoritmo
    ## dbl (3): Cantidad de reinas, Tiempo de ejecucion, Numero de soluciones explo...
    ## lgl (1): Solucion encontrada
    ## 
    ## ℹ Use `spec()` to retrieve the full column specification for this data.
    ## ℹ Specify the column types or set `show_col_types = FALSE` to quiet this message.

    lsearch_df

    ## # A tibble: 450 × 5
    ##    Algoritmo   `Cantidad de reinas` `Tiempo de ejecucion` Numero de soluciones…¹
    ##    <chr>                      <dbl>                 <dbl>                  <dbl>
    ##  1 Hill Climb…                    4                     0                      3
    ##  2 Hill Climb…                    4                     0                      1
    ##  3 Hill Climb…                    4                     0                      3
    ##  4 Hill Climb…                    4                     0                      3
    ##  5 Hill Climb…                    4                     0                      2
    ##  6 Hill Climb…                    4                     0                      3
    ##  7 Hill Climb…                    4                     0                      3
    ##  8 Hill Climb…                    4                     0                      4
    ##  9 Hill Climb…                    4                     0                      2
    ## 10 Hill Climb…                    4                     0                      2
    ## # ℹ 440 more rows
    ## # ℹ abbreviated name: ¹​`Numero de soluciones exploradas`
    ## # ℹ 1 more variable: `Solucion encontrada` <lgl>
…
    ## Rows: 50249 Columns: 3
    ## ── Column specification ────────────────────────────────────────────────────────
    ## Delimiter: ","
    ## chr (1): Algoritmo
    ## dbl (2): Numero de estado, Valores de h
    ## 
    ## ℹ Use `spec()` to retrieve the full column specification for this data.
    ## ℹ Specify the column types or set `show_col_types = FALSE` to quiet this message.

    hc_var_df <- subset(variability_df, Algoritmo == "Hill Climbing")
    sa_var_df <- subset(variability_df, Algoritmo == "Simulated Annealing")
    ga_var_df <- subset(variability_df, Algoritmo == "Genetic Algorithm")
    variability_df

    ## # A tibble: 50,249 × 3
    ##    Algoritmo           `Numero de estado` `Valores de h`
    ##    <chr>                            <dbl>          <dbl>
    ##  1 Hill Climbing                        0             15
    ##  2 Hill Climbing                        1             10
    ##  3 Hill Climbing                        2              7
    ##  4 Hill Climbing                        3              5
    ##  5 Hill Climbing                        4              3
    ##  6 Hill Climbing                        5              3
    ##  7 Simulated Annealing                  0             15
    ##  8 Simulated Annealing                  1             16
    ##  9 Simulated Annealing                  2             13
    ## 10 Simulated Annealing                  3             16
    ## # ℹ 50,239 more rows
…
Cuadro total:

    hc_df

    ## # A tibble: 150 × 5
    ##    Algoritmo   `Cantidad de reinas` `Tiempo de ejecucion` Numero de soluciones…¹
    ##    <chr>                      <dbl>                 <dbl>                  <dbl>
    ##  1 Hill Climb…                    4                     0                      3
    ##  2 Hill Climb…                    4                     0                      1
    ##  3 Hill Climb…                    4                     0                      3
    ##  4 Hill Climb…                    4                     0                      3
    ##  5 Hill Climb…                    4                     0                      2
    ##  6 Hill Climb…                    4                     0                      3
    ##  7 Hill Climb…                    4                     0                      3
    ##  8 Hill Climb…                    4                     0                      4
    ##  9 Hill Climb…                    4                     0                      2
    ## 10 Hill Climb…                    4                     0                      2
    ## # ℹ 140 more rows
    ## # ℹ abbreviated name: ¹​`Numero de soluciones exploradas`
    ## # ℹ 1 more variable: `Solucion encontrada` <lgl>
…
Cuadro total:

    sa_df

    ## # A tibble: 150 × 5
    ##    Algoritmo   `Cantidad de reinas` `Tiempo de ejecucion` Numero de soluciones…¹
    ##    <chr>                      <dbl>                 <dbl>                  <dbl>
    ##  1 Simulated …                    4              0.000999                    142
    ##  2 Simulated …                    4              0                           142
    ##  3 Simulated …                    4              0.00100                     142
    ##  4 Simulated …                    4              0                           142
    ##  5 Simulated …                    4              0                           142
    ##  6 Simulated …                    4              0.00100                     142
    ##  7 Simulated …                    4              0                           142
    ##  8 Simulated …                    4              0                           142
    ##  9 Simulated …                    4              0                           142
    ## 10 Simulated …                    4              0                           142
    ## # ℹ 140 more rows
    ## # ℹ abbreviated name: ¹​`Numero de soluciones exploradas`
    ## # ℹ 1 more variable: `Solucion encontrada` <lgl>
…
Cuadro total:

    ga_df

    ## # A tibble: 150 × 5
    ##    Algoritmo   `Cantidad de reinas` `Tiempo de ejecucion` Numero de soluciones…¹
    ##    <chr>                      <dbl>                 <dbl>                  <dbl>
    ##  1 Genetic Al…                    4              0                           100
    ##  2 Genetic Al…                    4              0.000999                    200
    ##  3 Genetic Al…                    4              0.00100                     150
    ##  4 Genetic Al…                    4              0.000998                    150
    ##  5 Genetic Al…                    4              0                           100
    ##  6 Genetic Al…                    4              0                           100
    ##  7 Genetic Al…                    4              0.00100                     100
    ##  8 Genetic Al…                    4              0.00101                     150
    ##  9 Genetic Al…                    4              0.00200                     250
    ## 10 Genetic Al…                    4              0.000997                    200
    ## # ℹ 140 more rows
    ## # ℹ abbreviated name: ¹​`Numero de soluciones exploradas`
    ## # ℹ 1 more variable: `Solucion encontrada` <lgl>
…
